{
        "name": "apm_dummy",
        "version": "0.00.01",
        "title": "Amator Phasma's Dummy Mod",
        "author": "AmatorPhasma",
        "dependencies": [
                "base >= 0.17.75",
                "apm_lib >= 0.18.00"
        ],
        "description": "...",
        "factorio_version": "0.17",
        "homepage": ""
}