{
        "name": "apm_xxx",
        "version": "0.18.00",
        "title": "Amator Phasma's xxx",
        "author": "AmatorPhasma",
        "dependencies": [
                "base >= 0.17.75",
                "apm_lib >= 0.18.03"
        ],
        "description": "...",
        "factorio_version": "0.17",
        "homepage": ""
}